<svg style="width:24px;height:24px" viewBox="0 0 24 24" xmlns="http://www.w3.org/2000/svg">
  <path fill="#000000" d="M2.39 1.73 1.11 3l3.1 3.1c-.13.29-.21.59-.21.9v10c0 2.21 3.59 4 8 4 2.3 0 4.38-.5 5.84-1.27l3 3 1.27-1.27L2.39 1.73M6 9.64c.76.43 1.7.78 2.76 1.01L12.11 14H12c-2.42 0-4.7-.6-6-1.55V9.64M12 19c-3.87 0-6-1.5-6-2v-2.23c1.61.78 3.72 1.23 6 1.23.68 0 1.34-.05 2-.13l2.34 2.36c-1.01.42-2.47.77-4.34.77M8.64 5.44 7.06 3.86C8.42 3.33 10.13 3 12 3c4.42 0 8 1.79 8 4v9.8l-2-2v-.03.01l-1.55-1.53c.6-.22 1.13-.49 1.55-.8V9.64c-1.03.58-2.39 1.01-3.94 1.22L12.19 9C15.94 8.94 18 7.5 18 7s-2.13-2-6-2c-1.34 0-2.46.18-3.36.44z"/>
</svg>
