<svg style="width:24px;height:24px" viewBox="0 0 24 24" xmlns="http://www.w3.org/2000/svg">
  <path fill="#000000" d="m12.89 3 1.96.4L11.11 21l-1.96-.4L12.89 3m6.7 9L16 8.41V5.58L22.42 12 16 18.41v-2.83L19.59 12M1.58 12 8 5.58v2.83L4.41 12 8 15.58v2.83L1.58 12z"/>
</svg>
