<svg style="width:24px;height:24px" viewBox="0 0 24 24" xmlns="http://www.w3.org/2000/svg">
  <path fill="#000000" d="M6.1 10 4 18V8h17a2 2 0 0 0-2-2h-7l-2-2H4a2 2 0 0 0-2 2v12a2 2 0 0 0 2 2h15c.9 0 1.7-.6 1.9-1.5l2.3-8.5H6.1M19 18H6l1.6-6h13L19 18z"/>
</svg>
